(kicad_symbol_lib
	(version 20231120)
	(generator "kicad_symbol_editor")
	(generator_version "8.0")
	(symbol "MC9S12DT256"
		(pin_names
			(offset 0.762)
		)
		(exclude_from_sim no)
		(in_bom yes)
		(on_board yes)
		(property "Reference" "U"
			(at 17.78 86.36 0)
			(effects
				(font
					(size 1.27 1.27)
				)
			)
		)
		(property "Value" "MC9S12DT256"
			(at 20.32 -73.66 0)
			(effects
				(font
					(size 1.27 1.27)
				)
			)
		)
		(property "Footprint" ""
			(at 1.27 0 0)
			(effects
				(font
					(size 1.27 1.27)
				)
				(hide yes)
			)
		)
		(property "Datasheet" "https://www.nxp.com/docs/en/fact-sheet/MC9S12DT256FS.pdf"
			(at 1.27 0 0)
			(effects
				(font
					(size 1.27 1.27)
				)
				(hide yes)
			)
		)
		(property "Description" "HCS12 Microcontroller"
			(at 0 0 0)
			(effects
				(font
					(size 1.27 1.27)
				)
				(hide yes)
			)
		)
		(property "ki_keywords" "HCS12 MCU"
			(at 0 0 0)
			(effects
				(font
					(size 1.27 1.27)
				)
				(hide yes)
			)
		)
		(symbol "MC9S12DT256_0_1"
			(rectangle
				(start -35.56 83.82)
				(end 38.1 -71.12)
				(stroke
					(width 0.254)
					(type default)
				)
				(fill
					(type background)
				)
			)
		)
		(symbol "MC9S12DT256_1_1"
			(pin bidirectional line
				(at 45.72 -50.8 180)
				(length 7.62)
				(name "SS1/PWM3/KWP3/PP3"
					(effects
						(font
							(size 1.27 1.27)
						)
					)
				)
				(number "1"
					(effects
						(font
							(size 1.27 1.27)
						)
					)
				)
			)
			(pin bidirectional line
				(at -43.18 22.86 0)
				(length 7.62)
				(name "PT1/IOC1"
					(effects
						(font
							(size 1.27 1.27)
						)
					)
				)
				(number "10"
					(effects
						(font
							(size 1.27 1.27)
						)
					)
				)
			)
			(pin bidirectional line
				(at 45.72 -20.32 180)
				(length 7.62)
				(name "BF_PROK/TXCAN0/TXCAN4/SCK0/PM5"
					(effects
						(font
							(size 1.27 1.27)
						)
					)
				)
				(number "100"
					(effects
						(font
							(size 1.27 1.27)
						)
					)
				)
			)
			(pin bidirectional line
				(at 45.72 -17.78 180)
				(length 7.62)
				(name "BF_PSYN/RXCAN0/RXCAN4/MOSI0/PM4"
					(effects
						(font
							(size 1.27 1.27)
						)
					)
				)
				(number "101"
					(effects
						(font
							(size 1.27 1.27)
						)
					)
				)
			)
			(pin bidirectional line
				(at 45.72 -15.24 180)
				(length 7.62)
				(name "TX_BF/TXCAN1/TXCAN0/SS0/PM3"
					(effects
						(font
							(size 1.27 1.27)
						)
					)
				)
				(number "102"
					(effects
						(font
							(size 1.27 1.27)
						)
					)
				)
			)
			(pin bidirectional line
				(at 45.72 -12.7 180)
				(length 7.62)
				(name "RX_BF/RXCAN1/RXCAN0/MISO0/PM2"
					(effects
						(font
							(size 1.27 1.27)
						)
					)
				)
				(number "103"
					(effects
						(font
							(size 1.27 1.27)
						)
					)
				)
			)
			(pin bidirectional line
				(at 45.72 -10.16 180)
				(length 7.62)
				(name "TXCAN0/TXB/PM1"
					(effects
						(font
							(size 1.27 1.27)
						)
					)
				)
				(number "104"
					(effects
						(font
							(size 1.27 1.27)
						)
					)
				)
			)
			(pin bidirectional line
				(at 45.72 -7.62 180)
				(length 7.62)
				(name "RXCAN0/RXB/PM0"
					(effects
						(font
							(size 1.27 1.27)
						)
					)
				)
				(number "105"
					(effects
						(font
							(size 1.27 1.27)
						)
					)
				)
			)
			(pin power_in line
				(at -2.54 -78.74 90)
				(length 7.62)
				(name "VSSX"
					(effects
						(font
							(size 1.27 1.27)
						)
					)
				)
				(number "106"
					(effects
						(font
							(size 1.27 1.27)
						)
					)
				)
			)
			(pin power_in line
				(at -5.08 91.44 270)
				(length 7.62)
				(name "VDDX"
					(effects
						(font
							(size 1.27 1.27)
						)
					)
				)
				(number "107"
					(effects
						(font
							(size 1.27 1.27)
						)
					)
				)
			)
			(pin bidirectional line
				(at 45.72 20.32 180)
				(length 7.62)
				(name "ECS/ROMCTL/PK7"
					(effects
						(font
							(size 1.27 1.27)
						)
					)
				)
				(number "108"
					(effects
						(font
							(size 1.27 1.27)
						)
					)
				)
			)
			(pin bidirectional line
				(at 45.72 -60.96 180)
				(length 7.62)
				(name "PWM7/KWP7/PP7"
					(effects
						(font
							(size 1.27 1.27)
						)
					)
				)
				(number "109"
					(effects
						(font
							(size 1.27 1.27)
						)
					)
				)
			)
			(pin bidirectional line
				(at -43.18 20.32 0)
				(length 7.62)
				(name "PT2/IOC2"
					(effects
						(font
							(size 1.27 1.27)
						)
					)
				)
				(number "11"
					(effects
						(font
							(size 1.27 1.27)
						)
					)
				)
			)
			(pin bidirectional line
				(at 45.72 -58.42 180)
				(length 7.62)
				(name "PWM6/KWP6/PP6"
					(effects
						(font
							(size 1.27 1.27)
						)
					)
				)
				(number "110"
					(effects
						(font
							(size 1.27 1.27)
						)
					)
				)
			)
			(pin bidirectional line
				(at 45.72 -55.88 180)
				(length 7.62)
				(name "PWM5/KWP5/PP5"
					(effects
						(font
							(size 1.27 1.27)
						)
					)
				)
				(number "111"
					(effects
						(font
							(size 1.27 1.27)
						)
					)
				)
			)
			(pin bidirectional line
				(at 45.72 -53.34 180)
				(length 7.62)
				(name "PWM4/KWP4/PP4"
					(effects
						(font
							(size 1.27 1.27)
						)
					)
				)
				(number "112"
					(effects
						(font
							(size 1.27 1.27)
						)
					)
				)
			)
			(pin bidirectional line
				(at -43.18 17.78 0)
				(length 7.62)
				(name "PT3/IOC3"
					(effects
						(font
							(size 1.27 1.27)
						)
					)
				)
				(number "12"
					(effects
						(font
							(size 1.27 1.27)
						)
					)
				)
			)
			(pin power_in line
				(at 2.54 91.44 270)
				(length 7.62)
				(name "VDD1"
					(effects
						(font
							(size 1.27 1.27)
						)
					)
				)
				(number "13"
					(effects
						(font
							(size 1.27 1.27)
						)
					)
				)
			)
			(pin power_in line
				(at 5.08 -78.74 90)
				(length 7.62)
				(name "VSS1"
					(effects
						(font
							(size 1.27 1.27)
						)
					)
				)
				(number "14"
					(effects
						(font
							(size 1.27 1.27)
						)
					)
				)
			)
			(pin bidirectional line
				(at -43.18 15.24 0)
				(length 7.62)
				(name "PT4/IOC4"
					(effects
						(font
							(size 1.27 1.27)
						)
					)
				)
				(number "15"
					(effects
						(font
							(size 1.27 1.27)
						)
					)
				)
			)
			(pin bidirectional line
				(at -43.18 12.7 0)
				(length 7.62)
				(name "PT5/IOC5"
					(effects
						(font
							(size 1.27 1.27)
						)
					)
				)
				(number "16"
					(effects
						(font
							(size 1.27 1.27)
						)
					)
				)
			)
			(pin bidirectional line
				(at -43.18 10.16 0)
				(length 7.62)
				(name "PT6/IOC6"
					(effects
						(font
							(size 1.27 1.27)
						)
					)
				)
				(number "17"
					(effects
						(font
							(size 1.27 1.27)
						)
					)
				)
			)
			(pin bidirectional line
				(at -43.18 7.62 0)
				(length 7.62)
				(name "PT7/IOC7"
					(effects
						(font
							(size 1.27 1.27)
						)
					)
				)
				(number "18"
					(effects
						(font
							(size 1.27 1.27)
						)
					)
				)
			)
			(pin bidirectional line
				(at 45.72 22.86 180)
				(length 7.62)
				(name "XADDR19/PK5"
					(effects
						(font
							(size 1.27 1.27)
						)
					)
				)
				(number "19"
					(effects
						(font
							(size 1.27 1.27)
						)
					)
				)
			)
			(pin bidirectional line
				(at 45.72 -48.26 180)
				(length 7.62)
				(name "SCK1/PWM2/KWP2/PP2"
					(effects
						(font
							(size 1.27 1.27)
						)
					)
				)
				(number "2"
					(effects
						(font
							(size 1.27 1.27)
						)
					)
				)
			)
			(pin bidirectional line
				(at 45.72 25.4 180)
				(length 7.62)
				(name "XADDR18/PK4"
					(effects
						(font
							(size 1.27 1.27)
						)
					)
				)
				(number "20"
					(effects
						(font
							(size 1.27 1.27)
						)
					)
				)
			)
			(pin bidirectional line
				(at 45.72 -33.02 180)
				(length 7.62)
				(name "KWJ1/PJ1"
					(effects
						(font
							(size 1.27 1.27)
						)
					)
				)
				(number "21"
					(effects
						(font
							(size 1.27 1.27)
						)
					)
				)
			)
			(pin bidirectional line
				(at 45.72 -30.48 180)
				(length 7.62)
				(name "KWJ0/PJ0"
					(effects
						(font
							(size 1.27 1.27)
						)
					)
				)
				(number "22"
					(effects
						(font
							(size 1.27 1.27)
						)
					)
				)
			)
			(pin bidirectional line
				(at -43.18 73.66 0)
				(length 7.62)
				(name "BKGD/TAGHI/MODC"
					(effects
						(font
							(size 1.27 1.27)
						)
					)
				)
				(number "23"
					(effects
						(font
							(size 1.27 1.27)
						)
					)
				)
			)
			(pin bidirectional line
				(at 45.72 81.28 180)
				(length 7.62)
				(name "ADDR0/DATA0/PB0"
					(effects
						(font
							(size 1.27 1.27)
						)
					)
				)
				(number "24"
					(effects
						(font
							(size 1.27 1.27)
						)
					)
				)
			)
			(pin bidirectional line
				(at 45.72 78.74 180)
				(length 7.62)
				(name "ADDR1/DATA1/PB1"
					(effects
						(font
							(size 1.27 1.27)
						)
					)
				)
				(number "25"
					(effects
						(font
							(size 1.27 1.27)
						)
					)
				)
			)
			(pin bidirectional line
				(at 45.72 76.2 180)
				(length 7.62)
				(name "ADDR2/DATA2/PB2"
					(effects
						(font
							(size 1.27 1.27)
						)
					)
				)
				(number "26"
					(effects
						(font
							(size 1.27 1.27)
						)
					)
				)
			)
			(pin bidirectional line
				(at 45.72 73.66 180)
				(length 7.62)
				(name "ADDR3/DATA3/PB3"
					(effects
						(font
							(size 1.27 1.27)
						)
					)
				)
				(number "27"
					(effects
						(font
							(size 1.27 1.27)
						)
					)
				)
			)
			(pin bidirectional line
				(at 45.72 71.12 180)
				(length 7.62)
				(name "ADDR4/DATA4/PB4"
					(effects
						(font
							(size 1.27 1.27)
						)
					)
				)
				(number "28"
					(effects
						(font
							(size 1.27 1.27)
						)
					)
				)
			)
			(pin bidirectional line
				(at 45.72 68.58 180)
				(length 7.62)
				(name "ADDR5/DATA5/PB5"
					(effects
						(font
							(size 1.27 1.27)
						)
					)
				)
				(number "29"
					(effects
						(font
							(size 1.27 1.27)
						)
					)
				)
			)
			(pin bidirectional line
				(at 45.72 -45.72 180)
				(length 7.62)
				(name "MOSI1/PWM1/KWP1/PP1"
					(effects
						(font
							(size 1.27 1.27)
						)
					)
				)
				(number "3"
					(effects
						(font
							(size 1.27 1.27)
						)
					)
				)
			)
			(pin bidirectional line
				(at 45.72 66.04 180)
				(length 7.62)
				(name "ADDR6/DATA6/PB6"
					(effects
						(font
							(size 1.27 1.27)
						)
					)
				)
				(number "30"
					(effects
						(font
							(size 1.27 1.27)
						)
					)
				)
			)
			(pin bidirectional line
				(at 45.72 63.5 180)
				(length 7.62)
				(name "ADDR7/DATA7/PB7"
					(effects
						(font
							(size 1.27 1.27)
						)
					)
				)
				(number "31"
					(effects
						(font
							(size 1.27 1.27)
						)
					)
				)
			)
			(pin bidirectional line
				(at -43.18 -66.04 0)
				(length 7.62)
				(name "PH7/KWH7"
					(effects
						(font
							(size 1.27 1.27)
						)
					)
				)
				(number "32"
					(effects
						(font
							(size 1.27 1.27)
						)
					)
				)
			)
			(pin bidirectional line
				(at -43.18 -63.5 0)
				(length 7.62)
				(name "PH6/KWH6"
					(effects
						(font
							(size 1.27 1.27)
						)
					)
				)
				(number "33"
					(effects
						(font
							(size 1.27 1.27)
						)
					)
				)
			)
			(pin bidirectional line
				(at -43.18 -60.96 0)
				(length 7.62)
				(name "PH5/KWH5"
					(effects
						(font
							(size 1.27 1.27)
						)
					)
				)
				(number "34"
					(effects
						(font
							(size 1.27 1.27)
						)
					)
				)
			)
			(pin bidirectional line
				(at -43.18 -58.42 0)
				(length 7.62)
				(name "PH4/KWH4"
					(effects
						(font
							(size 1.27 1.27)
						)
					)
				)
				(number "35"
					(effects
						(font
							(size 1.27 1.27)
						)
					)
				)
			)
			(pin bidirectional line
				(at -43.18 35.56 0)
				(length 7.62)
				(name "PE7/NOACC/XCLKS"
					(effects
						(font
							(size 1.27 1.27)
						)
					)
				)
				(number "36"
					(effects
						(font
							(size 1.27 1.27)
						)
					)
				)
			)
			(pin bidirectional line
				(at -43.18 38.1 0)
				(length 7.62)
				(name "PE6/MODB"
					(effects
						(font
							(size 1.27 1.27)
						)
					)
				)
				(number "37"
					(effects
						(font
							(size 1.27 1.27)
						)
					)
				)
			)
			(pin bidirectional line
				(at -43.18 40.64 0)
				(length 7.62)
				(name "PE5/MODA"
					(effects
						(font
							(size 1.27 1.27)
						)
					)
				)
				(number "38"
					(effects
						(font
							(size 1.27 1.27)
						)
					)
				)
			)
			(pin bidirectional line
				(at -43.18 43.18 0)
				(length 7.62)
				(name "PE4/ECLK"
					(effects
						(font
							(size 1.27 1.27)
						)
					)
				)
				(number "39"
					(effects
						(font
							(size 1.27 1.27)
						)
					)
				)
			)
			(pin bidirectional line
				(at 45.72 -43.18 180)
				(length 7.62)
				(name "MISO1/PWM0/KWP0/PP0"
					(effects
						(font
							(size 1.27 1.27)
						)
					)
				)
				(number "4"
					(effects
						(font
							(size 1.27 1.27)
						)
					)
				)
			)
			(pin power_in line
				(at -5.08 -78.74 90)
				(length 7.62)
				(name "VSSR"
					(effects
						(font
							(size 1.27 1.27)
						)
					)
				)
				(number "40"
					(effects
						(font
							(size 1.27 1.27)
						)
					)
				)
			)
			(pin power_in line
				(at -7.62 91.44 270)
				(length 7.62)
				(name "VDDR"
					(effects
						(font
							(size 1.27 1.27)
						)
					)
				)
				(number "41"
					(effects
						(font
							(size 1.27 1.27)
						)
					)
				)
			)
			(pin bidirectional line
				(at -43.18 68.58 0)
				(length 7.62)
				(name "RESET"
					(effects
						(font
							(size 1.27 1.27)
						)
					)
				)
				(number "42"
					(effects
						(font
							(size 1.27 1.27)
						)
					)
				)
			)
			(pin power_in line
				(at -43.18 60.96 0)
				(length 7.62)
				(name "VDDPLL"
					(effects
						(font
							(size 1.27 1.27)
						)
					)
				)
				(number "43"
					(effects
						(font
							(size 1.27 1.27)
						)
					)
				)
			)
			(pin bidirectional line
				(at -43.18 63.5 0)
				(length 7.62)
				(name "XFC"
					(effects
						(font
							(size 1.27 1.27)
						)
					)
				)
				(number "44"
					(effects
						(font
							(size 1.27 1.27)
						)
					)
				)
			)
			(pin bidirectional line
				(at -43.18 58.42 0)
				(length 7.62)
				(name "VSSPLL"
					(effects
						(font
							(size 1.27 1.27)
						)
					)
				)
				(number "45"
					(effects
						(font
							(size 1.27 1.27)
						)
					)
				)
			)
			(pin input line
				(at -43.18 81.28 0)
				(length 7.62)
				(name "EXTAL"
					(effects
						(font
							(size 1.27 1.27)
						)
					)
				)
				(number "46"
					(effects
						(font
							(size 1.27 1.27)
						)
					)
				)
			)
			(pin output line
				(at -43.18 78.74 0)
				(length 7.62)
				(name "XTAL"
					(effects
						(font
							(size 1.27 1.27)
						)
					)
				)
				(number "47"
					(effects
						(font
							(size 1.27 1.27)
						)
					)
				)
			)
			(pin input line
				(at -43.18 30.48 0)
				(length 7.62)
				(name "TEST"
					(effects
						(font
							(size 1.27 1.27)
						)
					)
				)
				(number "48"
					(effects
						(font
							(size 1.27 1.27)
						)
					)
				)
			)
			(pin bidirectional line
				(at -43.18 -55.88 0)
				(length 7.62)
				(name "PH3/KWH3/SS1"
					(effects
						(font
							(size 1.27 1.27)
						)
					)
				)
				(number "49"
					(effects
						(font
							(size 1.27 1.27)
						)
					)
				)
			)
			(pin bidirectional line
				(at 45.72 27.94 180)
				(length 7.62)
				(name "XADDR17/PK3"
					(effects
						(font
							(size 1.27 1.27)
						)
					)
				)
				(number "5"
					(effects
						(font
							(size 1.27 1.27)
						)
					)
				)
			)
			(pin bidirectional line
				(at -43.18 -53.34 0)
				(length 7.62)
				(name "PH2/KWH2/SCK1"
					(effects
						(font
							(size 1.27 1.27)
						)
					)
				)
				(number "50"
					(effects
						(font
							(size 1.27 1.27)
						)
					)
				)
			)
			(pin bidirectional line
				(at -43.18 -50.8 0)
				(length 7.62)
				(name "PH1/KWH1/MOSI1"
					(effects
						(font
							(size 1.27 1.27)
						)
					)
				)
				(number "51"
					(effects
						(font
							(size 1.27 1.27)
						)
					)
				)
			)
			(pin bidirectional line
				(at -43.18 -48.26 0)
				(length 7.62)
				(name "PH0/KWH0/MISO1"
					(effects
						(font
							(size 1.27 1.27)
						)
					)
				)
				(number "52"
					(effects
						(font
							(size 1.27 1.27)
						)
					)
				)
			)
			(pin bidirectional line
				(at -43.18 45.72 0)
				(length 7.62)
				(name "PE3/TAGLO/LSTRB"
					(effects
						(font
							(size 1.27 1.27)
						)
					)
				)
				(number "53"
					(effects
						(font
							(size 1.27 1.27)
						)
					)
				)
			)
			(pin bidirectional line
				(at -43.18 48.26 0)
				(length 7.62)
				(name "PE2/RW"
					(effects
						(font
							(size 1.27 1.27)
						)
					)
				)
				(number "54"
					(effects
						(font
							(size 1.27 1.27)
						)
					)
				)
			)
			(pin input line
				(at -43.18 50.8 0)
				(length 7.62)
				(name "PE1/IRQ"
					(effects
						(font
							(size 1.27 1.27)
						)
					)
				)
				(number "55"
					(effects
						(font
							(size 1.27 1.27)
						)
					)
				)
			)
			(pin input line
				(at -43.18 53.34 0)
				(length 7.62)
				(name "PE0/XIRQ"
					(effects
						(font
							(size 1.27 1.27)
						)
					)
				)
				(number "56"
					(effects
						(font
							(size 1.27 1.27)
						)
					)
				)
			)
			(pin bidirectional line
				(at 45.72 58.42 180)
				(length 7.62)
				(name "ADDR8/DATA8/PA0"
					(effects
						(font
							(size 1.27 1.27)
						)
					)
				)
				(number "57"
					(effects
						(font
							(size 1.27 1.27)
						)
					)
				)
			)
			(pin bidirectional line
				(at 45.72 55.88 180)
				(length 7.62)
				(name "ADDR9/DATA9/PA1"
					(effects
						(font
							(size 1.27 1.27)
						)
					)
				)
				(number "58"
					(effects
						(font
							(size 1.27 1.27)
						)
					)
				)
			)
			(pin bidirectional line
				(at 45.72 53.34 180)
				(length 7.62)
				(name "ADDR10/DATA10/PA2"
					(effects
						(font
							(size 1.27 1.27)
						)
					)
				)
				(number "59"
					(effects
						(font
							(size 1.27 1.27)
						)
					)
				)
			)
			(pin bidirectional line
				(at 45.72 30.48 180)
				(length 7.62)
				(name "XADDR16/PK2"
					(effects
						(font
							(size 1.27 1.27)
						)
					)
				)
				(number "6"
					(effects
						(font
							(size 1.27 1.27)
						)
					)
				)
			)
			(pin bidirectional line
				(at 45.72 50.8 180)
				(length 7.62)
				(name "ADDR11/DATA11/PA3"
					(effects
						(font
							(size 1.27 1.27)
						)
					)
				)
				(number "60"
					(effects
						(font
							(size 1.27 1.27)
						)
					)
				)
			)
			(pin bidirectional line
				(at 45.72 48.26 180)
				(length 7.62)
				(name "ADDR12/DATA12/PA4"
					(effects
						(font
							(size 1.27 1.27)
						)
					)
				)
				(number "61"
					(effects
						(font
							(size 1.27 1.27)
						)
					)
				)
			)
			(pin bidirectional line
				(at 45.72 45.72 180)
				(length 7.62)
				(name "ADDR13/DATA13/PA5"
					(effects
						(font
							(size 1.27 1.27)
						)
					)
				)
				(number "62"
					(effects
						(font
							(size 1.27 1.27)
						)
					)
				)
			)
			(pin bidirectional line
				(at 45.72 43.18 180)
				(length 7.62)
				(name "ADDR14/DATA14/PA6"
					(effects
						(font
							(size 1.27 1.27)
						)
					)
				)
				(number "63"
					(effects
						(font
							(size 1.27 1.27)
						)
					)
				)
			)
			(pin bidirectional line
				(at 45.72 40.64 180)
				(length 7.62)
				(name "ADDR15/DATA15/PA7"
					(effects
						(font
							(size 1.27 1.27)
						)
					)
				)
				(number "64"
					(effects
						(font
							(size 1.27 1.27)
						)
					)
				)
			)
			(pin power_in line
				(at 0 91.44 270)
				(length 7.62)
				(name "VDD2"
					(effects
						(font
							(size 1.27 1.27)
						)
					)
				)
				(number "65"
					(effects
						(font
							(size 1.27 1.27)
						)
					)
				)
			)
			(pin power_in line
				(at 2.54 -78.74 90)
				(length 7.62)
				(name "VSS2"
					(effects
						(font
							(size 1.27 1.27)
						)
					)
				)
				(number "66"
					(effects
						(font
							(size 1.27 1.27)
						)
					)
				)
			)
			(pin input line
				(at -43.18 -5.08 0)
				(length 7.62)
				(name "PAD00/AN00"
					(effects
						(font
							(size 1.27 1.27)
						)
					)
				)
				(number "67"
					(effects
						(font
							(size 1.27 1.27)
						)
					)
				)
			)
			(pin input line
				(at -43.18 -7.62 0)
				(length 7.62)
				(name "PAD08/AN08"
					(effects
						(font
							(size 1.27 1.27)
						)
					)
				)
				(number "68"
					(effects
						(font
							(size 1.27 1.27)
						)
					)
				)
			)
			(pin input line
				(at -43.18 -10.16 0)
				(length 7.62)
				(name "PAD01/AN01"
					(effects
						(font
							(size 1.27 1.27)
						)
					)
				)
				(number "69"
					(effects
						(font
							(size 1.27 1.27)
						)
					)
				)
			)
			(pin bidirectional line
				(at 45.72 33.02 180)
				(length 7.62)
				(name "XADDR15/PK1"
					(effects
						(font
							(size 1.27 1.27)
						)
					)
				)
				(number "7"
					(effects
						(font
							(size 1.27 1.27)
						)
					)
				)
			)
			(pin input line
				(at -43.18 -12.7 0)
				(length 7.62)
				(name "PAD09/AN09"
					(effects
						(font
							(size 1.27 1.27)
						)
					)
				)
				(number "70"
					(effects
						(font
							(size 1.27 1.27)
						)
					)
				)
			)
			(pin input line
				(at -43.18 -15.24 0)
				(length 7.62)
				(name "PAD02/AN02"
					(effects
						(font
							(size 1.27 1.27)
						)
					)
				)
				(number "71"
					(effects
						(font
							(size 1.27 1.27)
						)
					)
				)
			)
			(pin input line
				(at -43.18 -17.78 0)
				(length 7.62)
				(name "PAD10/AN10"
					(effects
						(font
							(size 1.27 1.27)
						)
					)
				)
				(number "72"
					(effects
						(font
							(size 1.27 1.27)
						)
					)
				)
			)
			(pin input line
				(at -43.18 -20.32 0)
				(length 7.62)
				(name "PAD03/AN03"
					(effects
						(font
							(size 1.27 1.27)
						)
					)
				)
				(number "73"
					(effects
						(font
							(size 1.27 1.27)
						)
					)
				)
			)
			(pin input line
				(at -43.18 -22.86 0)
				(length 7.62)
				(name "PAD11/AN11"
					(effects
						(font
							(size 1.27 1.27)
						)
					)
				)
				(number "74"
					(effects
						(font
							(size 1.27 1.27)
						)
					)
				)
			)
			(pin input line
				(at -43.18 -25.4 0)
				(length 7.62)
				(name "PAD04/AN04"
					(effects
						(font
							(size 1.27 1.27)
						)
					)
				)
				(number "75"
					(effects
						(font
							(size 1.27 1.27)
						)
					)
				)
			)
			(pin input line
				(at -43.18 -27.94 0)
				(length 7.62)
				(name "PAD12/AN12"
					(effects
						(font
							(size 1.27 1.27)
						)
					)
				)
				(number "76"
					(effects
						(font
							(size 1.27 1.27)
						)
					)
				)
			)
			(pin input line
				(at -43.18 -30.48 0)
				(length 7.62)
				(name "PAD05/AN05"
					(effects
						(font
							(size 1.27 1.27)
						)
					)
				)
				(number "77"
					(effects
						(font
							(size 1.27 1.27)
						)
					)
				)
			)
			(pin input line
				(at -43.18 -33.02 0)
				(length 7.62)
				(name "PAD13/AN13"
					(effects
						(font
							(size 1.27 1.27)
						)
					)
				)
				(number "78"
					(effects
						(font
							(size 1.27 1.27)
						)
					)
				)
			)
			(pin input line
				(at -43.18 -35.56 0)
				(length 7.62)
				(name "PAD06/AN06"
					(effects
						(font
							(size 1.27 1.27)
						)
					)
				)
				(number "79"
					(effects
						(font
							(size 1.27 1.27)
						)
					)
				)
			)
			(pin bidirectional line
				(at 45.72 35.56 180)
				(length 7.62)
				(name "XADDR14/PK0"
					(effects
						(font
							(size 1.27 1.27)
						)
					)
				)
				(number "8"
					(effects
						(font
							(size 1.27 1.27)
						)
					)
				)
			)
			(pin input line
				(at -43.18 -38.1 0)
				(length 7.62)
				(name "PAD14/AN14"
					(effects
						(font
							(size 1.27 1.27)
						)
					)
				)
				(number "80"
					(effects
						(font
							(size 1.27 1.27)
						)
					)
				)
			)
			(pin input line
				(at -43.18 -40.64 0)
				(length 7.62)
				(name "PAD07/AN07/ETRIG0"
					(effects
						(font
							(size 1.27 1.27)
						)
					)
				)
				(number "81"
					(effects
						(font
							(size 1.27 1.27)
						)
					)
				)
			)
			(pin input line
				(at -43.18 -43.18 0)
				(length 7.62)
				(name "PAD15/AN15/ETRIG1"
					(effects
						(font
							(size 1.27 1.27)
						)
					)
				)
				(number "82"
					(effects
						(font
							(size 1.27 1.27)
						)
					)
				)
			)
			(pin power_in line
				(at -2.54 91.44 270)
				(length 7.62)
				(name "VDDA"
					(effects
						(font
							(size 1.27 1.27)
						)
					)
				)
				(number "83"
					(effects
						(font
							(size 1.27 1.27)
						)
					)
				)
			)
			(pin passive line
				(at -43.18 2.54 0)
				(length 7.62)
				(name "VRH"
					(effects
						(font
							(size 1.27 1.27)
						)
					)
				)
				(number "84"
					(effects
						(font
							(size 1.27 1.27)
						)
					)
				)
			)
			(pin passive line
				(at -43.18 0 0)
				(length 7.62)
				(name "VRL"
					(effects
						(font
							(size 1.27 1.27)
						)
					)
				)
				(number "85"
					(effects
						(font
							(size 1.27 1.27)
						)
					)
				)
			)
			(pin power_in line
				(at 0 -78.74 90)
				(length 7.62)
				(name "VSSA"
					(effects
						(font
							(size 1.27 1.27)
						)
					)
				)
				(number "86"
					(effects
						(font
							(size 1.27 1.27)
						)
					)
				)
			)
			(pin bidirectional line
				(at 45.72 -25.4 180)
				(length 7.62)
				(name "BF_PSLM/TXCAN4/PM7"
					(effects
						(font
							(size 1.27 1.27)
						)
					)
				)
				(number "87"
					(effects
						(font
							(size 1.27 1.27)
						)
					)
				)
			)
			(pin bidirectional line
				(at 45.72 -22.86 180)
				(length 7.62)
				(name "BF_PERR/RXCAN4/PM6"
					(effects
						(font
							(size 1.27 1.27)
						)
					)
				)
				(number "88"
					(effects
						(font
							(size 1.27 1.27)
						)
					)
				)
			)
			(pin bidirectional line
				(at 45.72 15.24 180)
				(length 7.62)
				(name "RXD0/PS0"
					(effects
						(font
							(size 1.27 1.27)
						)
					)
				)
				(number "89"
					(effects
						(font
							(size 1.27 1.27)
						)
					)
				)
			)
			(pin bidirectional line
				(at -43.18 25.4 0)
				(length 7.62)
				(name "PT0/IOC0"
					(effects
						(font
							(size 1.27 1.27)
						)
					)
				)
				(number "9"
					(effects
						(font
							(size 1.27 1.27)
						)
					)
				)
			)
			(pin bidirectional line
				(at 45.72 12.7 180)
				(length 7.62)
				(name "TXD0/PS1"
					(effects
						(font
							(size 1.27 1.27)
						)
					)
				)
				(number "90"
					(effects
						(font
							(size 1.27 1.27)
						)
					)
				)
			)
			(pin bidirectional line
				(at 45.72 10.16 180)
				(length 7.62)
				(name "RXD1/PS2"
					(effects
						(font
							(size 1.27 1.27)
						)
					)
				)
				(number "91"
					(effects
						(font
							(size 1.27 1.27)
						)
					)
				)
			)
			(pin bidirectional line
				(at 45.72 7.62 180)
				(length 7.62)
				(name "TXD1/PS3"
					(effects
						(font
							(size 1.27 1.27)
						)
					)
				)
				(number "92"
					(effects
						(font
							(size 1.27 1.27)
						)
					)
				)
			)
			(pin bidirectional line
				(at 45.72 5.08 180)
				(length 7.62)
				(name "MISO0/PS4"
					(effects
						(font
							(size 1.27 1.27)
						)
					)
				)
				(number "93"
					(effects
						(font
							(size 1.27 1.27)
						)
					)
				)
			)
			(pin bidirectional line
				(at 45.72 2.54 180)
				(length 7.62)
				(name "MOSI0/PS5"
					(effects
						(font
							(size 1.27 1.27)
						)
					)
				)
				(number "94"
					(effects
						(font
							(size 1.27 1.27)
						)
					)
				)
			)
			(pin bidirectional line
				(at 45.72 0 180)
				(length 7.62)
				(name "SCK0/PS6"
					(effects
						(font
							(size 1.27 1.27)
						)
					)
				)
				(number "95"
					(effects
						(font
							(size 1.27 1.27)
						)
					)
				)
			)
			(pin bidirectional line
				(at 45.72 -2.54 180)
				(length 7.62)
				(name "SS0/PS7"
					(effects
						(font
							(size 1.27 1.27)
						)
					)
				)
				(number "96"
					(effects
						(font
							(size 1.27 1.27)
						)
					)
				)
			)
			(pin input line
				(at 7.62 91.44 270)
				(length 7.62)
				(name "VREGEN"
					(effects
						(font
							(size 1.27 1.27)
						)
					)
				)
				(number "97"
					(effects
						(font
							(size 1.27 1.27)
						)
					)
				)
			)
			(pin bidirectional line
				(at 45.72 -38.1 180)
				(length 7.62)
				(name "KWJ7/TXCAN4/SCL/TXCAN0/PJ7"
					(effects
						(font
							(size 1.27 1.27)
						)
					)
				)
				(number "98"
					(effects
						(font
							(size 1.27 1.27)
						)
					)
				)
			)
			(pin bidirectional line
				(at 45.72 -35.56 180)
				(length 7.62)
				(name "KWJ6/RXCAN4/SDA/RXCAN0/PJ6"
					(effects
						(font
							(size 1.27 1.27)
						)
					)
				)
				(number "99"
					(effects
						(font
							(size 1.27 1.27)
						)
					)
				)
			)
		)
	)
)